simulation/qsim/sorter.msim.vcd
$comment
	File created using the following command:
		vcd file sorter.msim.vcd -direction
$end
$date
	Thu Oct 14 21:01:28 2021
$end
$version
	ModelSim Version 10.5b
$end
$timescale
	1ps
$end

$scope module sorter_vhd_vec_tst $end
$var wire 1 ! clock $end
$var wire 1 " datain [3] $end
$var wire 1 # datain [2] $end
$var wire 1 $ datain [1] $end
$var wire 1 % datain [0] $end
$var wire 1 & dataout [3] $end
$var wire 1 ' dataout [2] $end
$var wire 1 ( dataout [1] $end
$var wire 1 ) dataout [0] $end
$var wire 1 * done $end
$var wire 1 + go $end
$var wire 1 , radd [2] $end
$var wire 1 - radd [1] $end
$var wire 1 . radd [0] $end
$var wire 1 / resetn $end
$var wire 1 0 wrinit $end

$scope module i1 $end
$var wire 1 1 gnd $end
$var wire 1 2 vcc $end
$var wire 1 3 unknown $end
$var wire 1 4 devoe $end
$var wire 1 5 devclrn $end
$var wire 1 6 devpor $end
$var wire 1 7 ww_devoe $end
$var wire 1 8 ww_devclrn $end
$var wire 1 9 ww_devpor $end
$var wire 1 : ww_clock $end
$var wire 1 ; ww_resetn $end
$var wire 1 < ww_go $end
$var wire 1 = ww_wrinit $end
$var wire 1 > ww_datain [3] $end
$var wire 1 ? ww_datain [2] $end
$var wire 1 @ ww_datain [1] $end
$var wire 1 A ww_datain [0] $end
$var wire 1 B ww_radd [2] $end
$var wire 1 C ww_radd [1] $end
$var wire 1 D ww_radd [0] $end
$var wire 1 E ww_dataout [3] $end
$var wire 1 F ww_dataout [2] $end
$var wire 1 G ww_dataout [1] $end
$var wire 1 H ww_dataout [0] $end
$var wire 1 I ww_done $end
$var wire 1 J \~QUARTUS_CREATED_GND~I_combout\ $end
$var wire 1 K \clock~input_o\ $end
$var wire 1 L \clock~inputCLKENA0_outclk\ $end
$var wire 1 M \go~input_o\ $end
$var wire 1 N \resetn~input_o\ $end
$var wire 1 O \control|Selector2~0_combout\ $end
$var wire 1 P \control|ci[0]~DUPLICATE_q\ $end
$var wire 1 Q \control|Selector5~0_combout\ $end
$var wire 1 R \control|WideOr0~0_combout\ $end
$var wire 1 S \control|state.S4~q\ $end
$var wire 1 T \control|Selector1~0_combout\ $end
$var wire 1 U \control|Selector4~0_combout\ $end
$var wire 1 V \control|state.S5~q\ $end
$var wire 1 W \control|WideOr4~combout\ $end
$var wire 1 X \control|Selector0~0_combout\ $end
$var wire 1 Y \control|Selector3~0_combout\ $end
$var wire 1 Z \control|Selector9~0_combout\ $end
$var wire 1 [ \control|state.S3~q\ $end
$var wire 1 \ \control|state.S4~DUPLICATE_q\ $end
$var wire 1 ] \control|cj[1]~DUPLICATE_q\ $end
$var wire 1 ^ \control|cj[2]~DUPLICATE_q\ $end
$var wire 1 _ \control|Selector11~0_combout\ $end
$var wire 1 ` \control|state.S5~DUPLICATE_q\ $end
$var wire 1 a \control|ci[2]~DUPLICATE_q\ $end
$var wire 1 b \control|Equal1~0_combout\ $end
$var wire 1 c \control|Selector12~0_combout\ $end
$var wire 1 d \control|state.S7~_Duplicate_1_q\ $end
$var wire 1 e \control|Selector6~0_combout\ $end
$var wire 1 f \control|state.S0~q\ $end
$var wire 1 g \control|Selector7~0_combout\ $end
$var wire 1 h \control|state.S1~q\ $end
$var wire 1 i \control|Selector8~0_combout\ $end
$var wire 1 j \control|state.S2~q\ $end
$var wire 1 k \control|WideOr2~combout\ $end
$var wire 1 l \wrinit~input_o\ $end
$var wire 1 m \control|WideOr1~combout\ $end
$var wire 1 n \control|WideOr0~combout\ $end
$var wire 1 o \datain[0]~input_o\ $end
$var wire 1 p \datos|Decoder2~0_combout\ $end
$var wire 1 q \datos|Decoder2~1_combout\ $end
$var wire 1 r \datos|Decoder2~6_combout\ $end
$var wire 1 s \datos|R~44_combout\ $end
$var wire 1 t \datos|R~45_combout\ $end
$var wire 1 u \datain[1]~input_o\ $end
$var wire 1 v \datos|Equal1~0_combout\ $end
$var wire 1 w \datos|Decoder2~4_combout\ $end
$var wire 1 x \datos|R~60_combout\ $end
$var wire 1 y \datos|R~61_combout\ $end
$var wire 1 z \datain[3]~input_o\ $end
$var wire 1 { \datos|R~86_combout\ $end
$var wire 1 | \datos|R~87_combout\ $end
$var wire 1 } \datain[2]~input_o\ $end
$var wire 1 ~ \datos|R~68_combout\ $end
$var wire 1 !! \datos|R~69_combout\ $end
$var wire 1 "! \datos|R[5][2]~12_combout\ $end
$var wire 1 #! \datos|R[5][2]~13_combout\ $end
$var wire 1 $! \datos|process_0~0_combout\ $end
$var wire 1 %! \radd[2]~input_o\ $end
$var wire 1 &! \radd[1]~input_o\ $end
$var wire 1 '! \radd[0]~input_o\ $end
$var wire 1 (! \datos|R[5][2]~11_combout\ $end
$var wire 1 )! \datos|R~4_combout\ $end
$var wire 1 *! \datos|Mux5~2_combout\ $end
$var wire 1 +! \datos|R~5_combout\ $end
$var wire 1 ,! \datos|R[5][2]~14_combout\ $end
$var wire 1 -! \datos|R[5][2]~q\ $end
$var wire 1 .! \datos|Decoder2~2_combout\ $end
$var wire 1 /! \datos|R~72_combout\ $end
$var wire 1 0! \datos|R~73_combout\ $end
$var wire 1 1! \datos|R[7][3]~23_combout\ $end
$var wire 1 2! \datos|Decoder1~0_combout\ $end
$var wire 1 3! \datos|R[7][3]~24_combout\ $end
$var wire 1 4! \datos|R[7][3]~25_combout\ $end
$var wire 1 5! \datos|R[7][2]~q\ $end
$var wire 1 6! \datos|R~70_combout\ $end
$var wire 1 7! \datos|R~71_combout\ $end
$var wire 1 8! \datos|R[6][2]~q\ $end
$var wire 1 9! \datos|Mux1~0_combout\ $end
$var wire 1 :! \datos|R~80_combout\ $end
$var wire 1 ;! \datos|R~81_combout\ $end
$var wire 1 <! \datos|R[1][2]~q\ $end
$var wire 1 =! \datos|R~76_combout\ $end
$var wire 1 >! \datos|R~77_combout\ $end
$var wire 1 ?! \datos|R[0][2]~q\ $end
$var wire 1 @! \datos|Decoder2~5_combout\ $end
$var wire 1 A! \datos|R~78_combout\ $end
$var wire 1 B! \datos|R~79_combout\ $end
$var wire 1 C! \datos|R[3][2]~40_combout\ $end
$var wire 1 D! \datos|R[3][2]~41_combout\ $end
$var wire 1 E! \datos|R[3][2]~42_combout\ $end
$var wire 1 F! \datos|R[3][2]~43_combout\ $end
$var wire 1 G! \datos|R[3][2]~q\ $end
$var wire 1 H! \datos|Mux1~1_combout\ $end
$var wire 1 I! \datos|Mux1~2_combout\ $end
$var wire 1 J! \datos|R~66_combout\ $end
$var wire 1 K! \datos|R~67_combout\ $end
$var wire 1 L! \datos|R[4][2]~3_combout\ $end
$var wire 1 M! \datos|R[4][2]~6_combout\ $end
$var wire 1 N! \datos|R[4][2]~7_combout\ $end
$var wire 1 O! \datos|R[4][2]~8_combout\ $end
$var wire 1 P! \datos|R[4][2]~q\ $end
$var wire 1 Q! \datos|Mux5~0_combout\ $end
$var wire 1 R! \datos|Decoder2~3_combout\ $end
$var wire 1 S! \datos|R~74_combout\ $end
$var wire 1 T! \datos|R~75_combout\ $end
$var wire 1 U! \datos|R[2][2]~28_combout\ $end
$var wire 1 V! \datos|R[2][2]~29_combout\ $end
$var wire 1 W! \datos|R[2][2]~30_combout\ $end
$var wire 1 X! \datos|R[2][2]~31_combout\ $end
$var wire 1 Y! \datos|R[2][2]~q\ $end
$var wire 1 Z! \datos|Mux5~1_combout\ $end
$var wire 1 [! \datos|LessThan0~0_combout\ $end
$var wire 1 \! \datos|R[6][2]~17_combout\ $end
$var wire 1 ]! \datos|R[6][2]~18_combout\ $end
$var wire 1 ^! \datos|R[6][2]~19_combout\ $end
$var wire 1 _! \datos|R[6][2]~20_combout\ $end
$var wire 1 `! \datos|R[6][3]~q\ $end
$var wire 1 a! \datos|R~84_combout\ $end
$var wire 1 b! \datos|R~85_combout\ $end
$var wire 1 c! \datos|R[5][3]~q\ $end
$var wire 1 d! \datos|R~82_combout\ $end
$var wire 1 e! \datos|R~83_combout\ $end
$var wire 1 f! \datos|R[4][3]~q\ $end
$var wire 1 g! \datos|Mux4~0_combout\ $end
$var wire 1 h! \datos|R~88_combout\ $end
$var wire 1 i! \datos|R~89_combout\ $end
$var wire 1 j! \datos|R[7][3]~q\ $end
$var wire 1 k! \datos|Mux0~0_combout\ $end
$var wire 1 l! \datos|R~92_combout\ $end
$var wire 1 m! \datos|R~93_combout\ $end
$var wire 1 n! \datos|R[0][3]~q\ $end
$var wire 1 o! \datos|R~94_combout\ $end
$var wire 1 p! \datos|R~95_combout\ $end
$var wire 1 q! \datos|R[3][3]~q\ $end
$var wire 1 r! \datos|R~96_combout\ $end
$var wire 1 s! \datos|R~97_combout\ $end
$var wire 1 t! \datos|R[1][3]~DUPLICATE_q\ $end
$var wire 1 u! \datos|Mux0~1_combout\ $end
$var wire 1 v! \datos|Mux0~2_combout\ $end
$var wire 1 w! \datos|R~90_combout\ $end
$var wire 1 x! \datos|R~91_combout\ $end
$var wire 1 y! \datos|R[2][3]~q\ $end
$var wire 1 z! \datos|R[1][3]~q\ $end
$var wire 1 {! \datos|Mux4~1_combout\ $end
$var wire 1 |! \datos|Mux4~2_combout\ $end
$var wire 1 }! \datos|R~2_combout\ $end
$var wire 1 ~! \datos|R[0][2]~34_combout\ $end
$var wire 1 !" \datos|R[0][2]~35_combout\ $end
$var wire 1 "" \datos|R[0][2]~36_combout\ $end
$var wire 1 #" \datos|R[0][2]~37_combout\ $end
$var wire 1 $" \datos|R[0][1]~q\ $end
$var wire 1 %" \datos|R~58_combout\ $end
$var wire 1 &" \datos|R~59_combout\ $end
$var wire 1 '" \datos|R[2][1]~q\ $end
$var wire 1 (" \datos|R~62_combout\ $end
$var wire 1 )" \datos|R~63_combout\ $end
$var wire 1 *" \datos|R[3][1]~q\ $end
$var wire 1 +" \datos|R~64_combout\ $end
$var wire 1 ," \datos|R~65_combout\ $end
$var wire 1 -" \datos|R[1][1]~q\ $end
$var wire 1 ." \datos|Mux7~1_combout\ $end
$var wire 1 /" \datos|R~52_combout\ $end
$var wire 1 0" \datos|R~53_combout\ $end
$var wire 1 1" \datos|R[5][1]~q\ $end
$var wire 1 2" \datos|R~54_combout\ $end
$var wire 1 3" \datos|R~55_combout\ $end
$var wire 1 4" \datos|R[6][1]~q\ $end
$var wire 1 5" \datos|R~50_combout\ $end
$var wire 1 6" \datos|R~51_combout\ $end
$var wire 1 7" \datos|R[4][1]~q\ $end
$var wire 1 8" \datos|Mux7~0_combout\ $end
$var wire 1 9" \datos|R~56_combout\ $end
$var wire 1 :" \datos|R~57_combout\ $end
$var wire 1 ;" \datos|R[7][1]~q\ $end
$var wire 1 <" \datos|Mux2~0_combout\ $end
$var wire 1 =" \datos|Mux2~1_combout\ $end
$var wire 1 >" \datos|Mux2~2_combout\ $end
$var wire 1 ?" \datos|R~98_combout\ $end
$var wire 1 @" \datos|R[1][2]~46_combout\ $end
$var wire 1 A" \datos|R[1][2]~47_combout\ $end
$var wire 1 B" \datos|R[1][2]~48_combout\ $end
$var wire 1 C" \datos|R[1][2]~49_combout\ $end
$var wire 1 D" \datos|R[1][0]~q\ $end
$var wire 1 E" \datos|R~38_combout\ $end
$var wire 1 F" \datos|R~39_combout\ $end
$var wire 1 G" \datos|R[3][0]~q\ $end
$var wire 1 H" \datos|R~26_combout\ $end
$var wire 1 I" \datos|R~27_combout\ $end
$var wire 1 J" \datos|R[2][0]~q\ $end
$var wire 1 K" \datos|Mux6~1_combout\ $end
$var wire 1 L" \datos|R~9_combout\ $end
$var wire 1 M" \datos|R~10_combout\ $end
$var wire 1 N" \datos|R[5][0]~q\ $end
$var wire 1 O" \datos|R~15_combout\ $end
$var wire 1 P" \datos|R~16_combout\ $end
$var wire 1 Q" \datos|R[6][0]~DUPLICATE_q\ $end
$var wire 1 R" \datos|R~21_combout\ $end
$var wire 1 S" \datos|R~22_combout\ $end
$var wire 1 T" \datos|R[7][0]~q\ $end
$var wire 1 U" \datos|Mux3~0_combout\ $end
$var wire 1 V" \datos|Mux3~1_combout\ $end
$var wire 1 W" \datos|Mux3~2_combout\ $end
$var wire 1 X" \datos|R~0_combout\ $end
$var wire 1 Y" \datos|R~1_combout\ $end
$var wire 1 Z" \datos|R[4][0]~q\ $end
$var wire 1 [" \datos|Mux6~0_combout\ $end
$var wire 1 \" \datos|R~32_combout\ $end
$var wire 1 ]" \datos|R~33_combout\ $end
$var wire 1 ^" \datos|R[0][0]~q\ $end
$var wire 1 _" \datos|Mux11~1_combout\ $end
$var wire 1 `" \datos|R[6][0]~q\ $end
$var wire 1 a" \datos|Mux11~0_combout\ $end
$var wire 1 b" \datos|Mux11~2_combout\ $end
$var wire 1 c" \datos|dataout[0]~0_combout\ $end
$var wire 1 d" \datos|Mux10~0_combout\ $end
$var wire 1 e" \datos|Mux10~1_combout\ $end
$var wire 1 f" \datos|Mux10~2_combout\ $end
$var wire 1 g" \datos|Mux9~0_combout\ $end
$var wire 1 h" \datos|Mux9~1_combout\ $end
$var wire 1 i" \datos|Mux9~2_combout\ $end
$var wire 1 j" \datos|Mux8~0_combout\ $end
$var wire 1 k" \datos|Mux8~1_combout\ $end
$var wire 1 l" \datos|Mux8~2_combout\ $end
$var wire 1 m" \control|state.S7~q\ $end
$var wire 1 n" \datos|dataout\ [3] $end
$var wire 1 o" \datos|dataout\ [2] $end
$var wire 1 p" \datos|dataout\ [1] $end
$var wire 1 q" \datos|dataout\ [0] $end
$var wire 1 r" \control|ci\ [2] $end
$var wire 1 s" \control|ci\ [1] $end
$var wire 1 t" \control|ci\ [0] $end
$var wire 1 u" \datos|R8\ [3] $end
$var wire 1 v" \datos|R8\ [2] $end
$var wire 1 w" \datos|R8\ [1] $end
$var wire 1 x" \datos|R8\ [0] $end
$var wire 1 y" \control|cj\ [2] $end
$var wire 1 z" \control|cj\ [1] $end
$var wire 1 {" \control|cj\ [0] $end
$var wire 1 |" \control|ALT_INV_cj[1]~DUPLICATE_q\ $end
$var wire 1 }" \control|ALT_INV_cj[2]~DUPLICATE_q\ $end
$var wire 1 ~" \control|ALT_INV_ci[0]~DUPLICATE_q\ $end
$var wire 1 !# \control|ALT_INV_ci[2]~DUPLICATE_q\ $end
$var wire 1 "# \datos|ALT_INV_R[1][3]~DUPLICATE_q\ $end
$var wire 1 ## \control|ALT_INV_state.S5~DUPLICATE_q\ $end
$var wire 1 $# \control|ALT_INV_state.S4~DUPLICATE_q\ $end
$var wire 1 %# \datos|ALT_INV_R[6][0]~DUPLICATE_q\ $end
$var wire 1 &# \ALT_INV_datain[3]~input_o\ $end
$var wire 1 '# \ALT_INV_datain[2]~input_o\ $end
$var wire 1 (# \ALT_INV_datain[1]~input_o\ $end
$var wire 1 )# \ALT_INV_wrinit~input_o\ $end
$var wire 1 *# \ALT_INV_datain[0]~input_o\ $end
$var wire 1 +# \ALT_INV_go~input_o\ $end
$var wire 1 ,# \ALT_INV_radd[1]~input_o\ $end
$var wire 1 -# \ALT_INV_radd[0]~input_o\ $end
$var wire 1 .# \ALT_INV_radd[2]~input_o\ $end
$var wire 1 /# \control|ALT_INV_WideOr4~combout\ $end
$var wire 1 0# \datos|ALT_INV_R~96_combout\ $end
$var wire 1 1# \datos|ALT_INV_R~94_combout\ $end
$var wire 1 2# \datos|ALT_INV_R~92_combout\ $end
$var wire 1 3# \datos|ALT_INV_R~90_combout\ $end
$var wire 1 4# \datos|ALT_INV_R~88_combout\ $end
$var wire 1 5# \datos|ALT_INV_R~86_combout\ $end
$var wire 1 6# \datos|ALT_INV_R~84_combout\ $end
$var wire 1 7# \datos|ALT_INV_R~82_combout\ $end
$var wire 1 8# \datos|ALT_INV_R8\ [3] $end
$var wire 1 9# \datos|ALT_INV_R8\ [2] $end
$var wire 1 :# \datos|ALT_INV_R8\ [1] $end
$var wire 1 ;# \datos|ALT_INV_R8\ [0] $end
$var wire 1 <# \datos|ALT_INV_R~80_combout\ $end
$var wire 1 =# \datos|ALT_INV_R~78_combout\ $end
$var wire 1 ># \datos|ALT_INV_R~76_combout\ $end
$var wire 1 ?# \datos|ALT_INV_R~74_combout\ $end
$var wire 1 @# \datos|ALT_INV_R~72_combout\ $end
$var wire 1 A# \datos|ALT_INV_R~70_combout\ $end
$var wire 1 B# \datos|ALT_INV_R~68_combout\ $end
$var wire 1 C# \datos|ALT_INV_R~66_combout\ $end
$var wire 1 D# \datos|ALT_INV_R~64_combout\ $end
$var wire 1 E# \datos|ALT_INV_R~62_combout\ $end
$var wire 1 F# \datos|ALT_INV_R~60_combout\ $end
$var wire 1 G# \datos|ALT_INV_R~58_combout\ $end
$var wire 1 H# \datos|ALT_INV_R~56_combout\ $end
$var wire 1 I# \datos|ALT_INV_R~54_combout\ $end
$var wire 1 J# \datos|ALT_INV_R~52_combout\ $end
$var wire 1 K# \datos|ALT_INV_R~50_combout\ $end
$var wire 1 L# \datos|ALT_INV_R[1][2]~48_combout\ $end
$var wire 1 M# \datos|ALT_INV_R[1][2]~47_combout\ $end
$var wire 1 N# \datos|ALT_INV_R[1][2]~46_combout\ $end
$var wire 1 O# \datos|ALT_INV_R~44_combout\ $end
$var wire 1 P# \datos|ALT_INV_Decoder2~6_combout\ $end
$var wire 1 Q# \datos|ALT_INV_R[3][2]~42_combout\ $end
$var wire 1 R# \datos|ALT_INV_R[3][2]~41_combout\ $end
$var wire 1 S# \datos|ALT_INV_R[3][2]~40_combout\ $end
$var wire 1 T# \datos|ALT_INV_R~38_combout\ $end
$var wire 1 U# \datos|ALT_INV_Decoder2~5_combout\ $end
$var wire 1 V# \datos|ALT_INV_R[0][2]~36_combout\ $end
$var wire 1 W# \datos|ALT_INV_R[0][2]~35_combout\ $end
$var wire 1 X# \datos|ALT_INV_R[0][2]~34_combout\ $end
$var wire 1 Y# \datos|ALT_INV_R~32_combout\ $end
$var wire 1 Z# \datos|ALT_INV_Decoder2~4_combout\ $end
$var wire 1 [# \datos|ALT_INV_R[2][2]~30_combout\ $end
$var wire 1 \# \datos|ALT_INV_R[2][2]~29_combout\ $end
$var wire 1 ]# \datos|ALT_INV_R[2][2]~28_combout\ $end
$var wire 1 ^# \datos|ALT_INV_R~26_combout\ $end
$var wire 1 _# \datos|ALT_INV_Decoder2~3_combout\ $end
$var wire 1 `# \datos|ALT_INV_R[7][3]~24_combout\ $end
$var wire 1 a# \datos|ALT_INV_Decoder1~0_combout\ $end
$var wire 1 b# \datos|ALT_INV_R[7][3]~23_combout\ $end
$var wire 1 c# \datos|ALT_INV_R~21_combout\ $end
$var wire 1 d# \datos|ALT_INV_Decoder2~2_combout\ $end
$var wire 1 e# \datos|ALT_INV_R[6][2]~19_combout\ $end
$var wire 1 f# \datos|ALT_INV_R[6][2]~18_combout\ $end
$var wire 1 g# \datos|ALT_INV_R[6][2]~17_combout\ $end
$var wire 1 h# \datos|ALT_INV_R~15_combout\ $end
$var wire 1 i# \datos|ALT_INV_R[5][2]~13_combout\ $end
$var wire 1 j# \datos|ALT_INV_R[5][2]~12_combout\ $end
$var wire 1 k# \datos|ALT_INV_R[5][2]~11_combout\ $end
$var wire 1 l# \datos|ALT_INV_R~9_combout\ $end
$var wire 1 m# \datos|ALT_INV_Decoder2~1_combout\ $end
$var wire 1 n# \datos|ALT_INV_R[4][2]~7_combout\ $end
$var wire 1 o# \datos|ALT_INV_R[4][2]~6_combout\ $end
$var wire 1 p# \datos|ALT_INV_R~5_combout\ $end
$var wire 1 q# \datos|ALT_INV_Mux1~2_combout\ $end
$var wire 1 r# \datos|ALT_INV_Mux5~2_combout\ $end
$var wire 1 s# \datos|ALT_INV_R~4_combout\ $end
$var wire 1 t# \datos|ALT_INV_R[4][2]~3_combout\ $end
$var wire 1 u# \datos|ALT_INV_process_0~0_combout\ $end
$var wire 1 v# \datos|ALT_INV_Mux3~2_combout\ $end
$var wire 1 w# \datos|ALT_INV_Mux3~1_combout\ $end
$var wire 1 x# \datos|ALT_INV_Mux3~0_combout\ $end
$var wire 1 y# \datos|ALT_INV_Mux2~2_combout\ $end
$var wire 1 z# \datos|ALT_INV_Mux2~1_combout\ $end
$var wire 1 {# \datos|ALT_INV_Mux2~0_combout\ $end
$var wire 1 |# \datos|ALT_INV_Mux7~1_combout\ $end
$var wire 1 }# \datos|ALT_INV_Mux7~0_combout\ $end
$var wire 1 ~# \datos|ALT_INV_LessThan0~0_combout\ $end
$var wire 1 !$ \datos|ALT_INV_Mux1~1_combout\ $end
$var wire 1 "$ \datos|ALT_INV_Mux1~0_combout\ $end
$var wire 1 #$ \datos|ALT_INV_Mux5~1_combout\ $end
$var wire 1 $$ \datos|ALT_INV_Mux5~0_combout\ $end
$var wire 1 %$ \datos|ALT_INV_R~2_combout\ $end
$var wire 1 &$ \datos|ALT_INV_Mux0~2_combout\ $end
$var wire 1 '$ \datos|ALT_INV_Mux0~1_combout\ $end
$var wire 1 ($ \datos|ALT_INV_Mux0~0_combout\ $end
$var wire 1 )$ \control|ALT_INV_cj\ [2] $end
$var wire 1 *$ \control|ALT_INV_cj\ [1] $end
$var wire 1 +$ \control|ALT_INV_cj\ [0] $end
$var wire 1 ,$ \datos|ALT_INV_Mux4~2_combout\ $end
$var wire 1 -$ \datos|ALT_INV_Mux4~1_combout\ $end
$var wire 1 .$ \datos|ALT_INV_Mux4~0_combout\ $end
$var wire 1 /$ \datos|ALT_INV_R~0_combout\ $end
$var wire 1 0$ \datos|ALT_INV_Mux6~1_combout\ $end
$var wire 1 1$ \datos|ALT_INV_Mux6~0_combout\ $end
$var wire 1 2$ \datos|ALT_INV_Decoder2~0_combout\ $end
$var wire 1 3$ \control|ALT_INV_Equal1~0_combout\ $end
$var wire 1 4$ \control|ALT_INV_ci\ [2] $end
$var wire 1 5$ \control|ALT_INV_ci\ [1] $end
$var wire 1 6$ \control|ALT_INV_ci\ [0] $end
$var wire 1 7$ \control|ALT_INV_state.S1~q\ $end
$var wire 1 8$ \datos|ALT_INV_Mux8~1_combout\ $end
$var wire 1 9$ \datos|ALT_INV_R[1][3]~q\ $end
$var wire 1 :$ \datos|ALT_INV_R[3][3]~q\ $end
$var wire 1 ;$ \datos|ALT_INV_R[0][3]~q\ $end
$var wire 1 <$ \datos|ALT_INV_R[2][3]~q\ $end
$var wire 1 =$ \datos|ALT_INV_Mux8~0_combout\ $end
$var wire 1 >$ \datos|ALT_INV_R[7][3]~q\ $end
$var wire 1 ?$ \datos|ALT_INV_R[6][3]~q\ $end
$var wire 1 @$ \datos|ALT_INV_R[5][3]~q\ $end
$var wire 1 A$ \datos|ALT_INV_R[4][3]~q\ $end
$var wire 1 B$ \datos|ALT_INV_Mux9~1_combout\ $end
$var wire 1 C$ \datos|ALT_INV_R[1][2]~q\ $end
$var wire 1 D$ \datos|ALT_INV_R[3][2]~q\ $end
$var wire 1 E$ \datos|ALT_INV_R[0][2]~q\ $end
$var wire 1 F$ \datos|ALT_INV_R[2][2]~q\ $end
$var wire 1 G$ \datos|ALT_INV_Mux9~0_combout\ $end
$var wire 1 H$ \datos|ALT_INV_R[7][2]~q\ $end
$var wire 1 I$ \datos|ALT_INV_R[6][2]~q\ $end
$var wire 1 J$ \datos|ALT_INV_R[5][2]~q\ $end
$var wire 1 K$ \datos|ALT_INV_R[4][2]~q\ $end
$var wire 1 L$ \datos|ALT_INV_Mux10~1_combout\ $end
$var wire 1 M$ \datos|ALT_INV_R[1][1]~q\ $end
$var wire 1 N$ \datos|ALT_INV_R[3][1]~q\ $end
$var wire 1 O$ \datos|ALT_INV_R[0][1]~q\ $end
$var wire 1 P$ \datos|ALT_INV_R[2][1]~q\ $end
$var wire 1 Q$ \datos|ALT_INV_Mux10~0_combout\ $end
$var wire 1 R$ \datos|ALT_INV_R[7][1]~q\ $end
$var wire 1 S$ \datos|ALT_INV_R[6][1]~q\ $end
$var wire 1 T$ \datos|ALT_INV_R[5][1]~q\ $end
$var wire 1 U$ \datos|ALT_INV_R[4][1]~q\ $end
$var wire 1 V$ \control|ALT_INV_WideOr2~combout\ $end
$var wire 1 W$ \control|ALT_INV_state.S0~q\ $end
$var wire 1 X$ \control|ALT_INV_WideOr1~combout\ $end
$var wire 1 Y$ \control|ALT_INV_state.S3~q\ $end
$var wire 1 Z$ \control|ALT_INV_state.S2~q\ $end
$var wire 1 [$ \control|ALT_INV_WideOr0~combout\ $end
$var wire 1 \$ \control|ALT_INV_state.S5~q\ $end
$var wire 1 ]$ \control|ALT_INV_state.S4~q\ $end
$var wire 1 ^$ \datos|ALT_INV_Mux11~1_combout\ $end
$var wire 1 _$ \datos|ALT_INV_R[1][0]~q\ $end
$var wire 1 `$ \datos|ALT_INV_R[3][0]~q\ $end
$var wire 1 a$ \datos|ALT_INV_R[0][0]~q\ $end
$var wire 1 b$ \datos|ALT_INV_R[2][0]~q\ $end
$var wire 1 c$ \datos|ALT_INV_Mux11~0_combout\ $end
$var wire 1 d$ \datos|ALT_INV_R[7][0]~q\ $end
$var wire 1 e$ \datos|ALT_INV_R[6][0]~q\ $end
$var wire 1 f$ \datos|ALT_INV_R[5][0]~q\ $end
$var wire 1 g$ \datos|ALT_INV_R[4][0]~q\ $end
$var wire 1 h$ \control|ALT_INV_state.S7~_Duplicate_1_q\ $end
$var wire 1 i$ \datos|ALT_INV_R~98_combout\ $end
$upscope $end
$upscope $end
$enddefinitions $end
#0
$dumpvars
0!
0*
0+
0/
00
01
12
x3
14
15
16
17
18
19
0:
0;
0<
0=
0I
xJ
0K
0L
0M
0N
0O
0P
0Q
1R
0S
0T
0U
0V
1W
0X
0Y
0Z
0[
0\
0]
0^
0_
0`
0a
0b
0c
0d
1e
0f
1g
0h
0i
0j
0k
0l
1m
1n
0o
0p
0q
0r
0s
0t
0u
0v
1w
0x
0y
0z
0{
0|
0}
0~
0!!
0"!
1#!
0$!
0%!
0&!
0'!
0(!
0)!
0*!
0+!
0,!
0-!
0.!
0/!
00!
01!
02!
13!
04!
05!
06!
07!
08!
09!
0:!
0;!
0<!
0=!
0>!
0?!
0@!
0A!
0B!
0C!
0D!
1E!
0F!
0G!
0H!
0I!
0J!
0K!
0L!
0M!
1N!
0O!
0P!
0Q!
0R!
0S!
0T!
0U!
0V!
1W!
0X!
0Y!
0Z!
0[!
0\!
0]!
1^!
0_!
0`!
0a!
0b!
0c!
0d!
0e!
0f!
0g!
0h!
0i!
0j!
0k!
0l!
0m!
0n!
0o!
0p!
0q!
0r!
0s!
0t!
0u!
0v!
0w!
0x!
0y!
0z!
0{!
0|!
0}!
0~!
1!"
0""
0#"
0$"
0%"
0&"
0'"
0("
0)"
0*"
0+"
0,"
0-"
0."
0/"
00"
01"
02"
03"
04"
05"
06"
07"
08"
09"
0:"
0;"
0<"
0="
0>"
0?"
0@"
0A"
1B"
0C"
0D"
0E"
0F"
0G"
0H"
0I"
0J"
0K"
0L"
0M"
0N"
0O"
0P"
0Q"
0R"
0S"
0T"
0U"
0V"
0W"
0X"
0Y"
0Z"
0["
0\"
0]"
0^"
0_"
0`"
0a"
0b"
0c"
0d"
0e"
0f"
0g"
0h"
0i"
0j"
0k"
0l"
0m"
1|"
1}"
1~"
1!#
1"#
1##
1$#
1%#
1&#
1'#
1(#
1)#
1*#
1+#
1,#
1-#
1.#
0/#
10#
11#
12#
13#
14#
15#
16#
17#
1<#
1=#
1>#
1?#
1@#
1A#
1B#
1C#
1D#
1E#
1F#
1G#
1H#
1I#
1J#
1K#
0L#
1M#
1N#
1O#
1P#
0Q#
1R#
1S#
1T#
1U#
1V#
0W#
1X#
1Y#
0Z#
0[#
1\#
1]#
1^#
1_#
0`#
1a#
1b#
1c#
1d#
0e#
1f#
1g#
1h#
0i#
1j#
1k#
1l#
1m#
0n#
1o#
1p#
1q#
1r#
1s#
1t#
1u#
1v#
1w#
1x#
1y#
1z#
1{#
1|#
1}#
1~#
1!$
1"$
1#$
1$$
1%$
1&$
1'$
1($
1,$
1-$
1.$
1/$
10$
11$
12$
13$
17$
18$
19$
1:$
1;$
1<$
1=$
1>$
1?$
1@$
1A$
1B$
1C$
1D$
1E$
1F$
1G$
1H$
1I$
1J$
1K$
1L$
1M$
1N$
1O$
1P$
1Q$
1R$
1S$
1T$
1U$
1V$
1W$
0X$
1Y$
1Z$
0[$
1\$
1]$
1^$
1_$
1`$
1a$
1b$
1c$
1d$
1e$
1f$
1g$
1h$
1i$
0"
0#
0$
0%
0,
0-
0.
0&
0'
0(
0)
0>
0?
0@
0A
0B
0C
0D
0E
0F
0G
0H
0n"
0o"
0p"
0q"
0r"
0s"
0t"
0u"
0v"
0w"
0x"
0y"
0z"
0{"
18#
19#
1:#
1;#
1)$
1*$
1+$
14$
15$
16$
$end
#6000
1!
1:
1K
1L
#12000
0!
0:
0K
0L
#18000
1!
1:
1K
1L
#24000
0!
0:
0K
0L
#26000
1/
1;
1N
#30000
1!
1:
1K
1L
1f
1h
07$
0W$
1k
0V$
#36000
0!
0:
0K
0L
#38000
1"
1#
1$
1%
1A
1@
1?
1>
1z
1}
1u
1o
0*#
0(#
0'#
0&#
#42000
1!
1:
1K
1L
#46000
10
1=
1l
0)#
1t
1y
1|
1!!
0#!
1$!
10!
03!
17!
1;!
1>!
1B!
0E!
1K!
0N!
1T!
0W!
0^!
1b!
1e!
1i!
1m!
1p!
1s!
1x!
1&"
1)"
1,"
10"
13"
16"
1:"
0B"
1F"
1I"
1M"
1P"
1S"
1Y"
1]"
1L#
1e#
1[#
1n#
1Q#
1`#
0u#
1i#
1~!
0X#
1#"
#48000
0!
0:
0K
0L
