simulation/qsim/sorter.msim.vcd
$comment
	File created using the following command:
		vcd file sorter.msim.vcd -direction
$end
$date
	Fri Oct 15 00:12:38 2021
$end
$version
	ModelSim Version 10.5b
$end
$timescale
	1ps
$end

$scope module sorter_vhd_vec_tst $end
$var wire 1 ! clock $end
$var wire 1 " datain [3] $end
$var wire 1 # datain [2] $end
$var wire 1 $ datain [1] $end
$var wire 1 % datain [0] $end
$var wire 1 & dataout [3] $end
$var wire 1 ' dataout [2] $end
$var wire 1 ( dataout [1] $end
$var wire 1 ) dataout [0] $end
$var wire 1 * done $end
$var wire 1 + go $end
$var wire 1 , radd [2] $end
$var wire 1 - radd [1] $end
$var wire 1 . radd [0] $end
$var wire 1 / resetn $end
$var wire 1 0 wrinit $end

$scope module i1 $end
$var wire 1 1 gnd $end
$var wire 1 2 vcc $end
$var wire 1 3 unknown $end
$var wire 1 4 devoe $end
$var wire 1 5 devclrn $end
$var wire 1 6 devpor $end
$var wire 1 7 ww_devoe $end
$var wire 1 8 ww_devclrn $end
$var wire 1 9 ww_devpor $end
$var wire 1 : ww_clock $end
$var wire 1 ; ww_resetn $end
$var wire 1 < ww_go $end
$var wire 1 = ww_wrinit $end
$var wire 1 > ww_datain [3] $end
$var wire 1 ? ww_datain [2] $end
$var wire 1 @ ww_datain [1] $end
$var wire 1 A ww_datain [0] $end
$var wire 1 B ww_radd [2] $end
$var wire 1 C ww_radd [1] $end
$var wire 1 D ww_radd [0] $end
$var wire 1 E ww_dataout [3] $end
$var wire 1 F ww_dataout [2] $end
$var wire 1 G ww_dataout [1] $end
$var wire 1 H ww_dataout [0] $end
$var wire 1 I ww_done $end
$var wire 1 J \~QUARTUS_CREATED_GND~I_combout\ $end
$var wire 1 K \clock~input_o\ $end
$var wire 1 L \clock~inputCLKENA0_outclk\ $end
$var wire 1 M \radd[2]~input_o\ $end
$var wire 1 N \resetn~input_o\ $end
$var wire 1 O \control|state.S4~DUPLICATE_q\ $end
$var wire 1 P \go~input_o\ $end
$var wire 1 Q \control|state.S5~q\ $end
$var wire 1 R \control|state.S0~0_combout\ $end
$var wire 1 S \control|state.S0~q\ $end
$var wire 1 T \control|Selector6~0_combout\ $end
$var wire 1 U \control|state.S1~q\ $end
$var wire 1 V \control|ci[1]~DUPLICATE_q\ $end
$var wire 1 W \control|Selector1~0_combout\ $end
$var wire 1 X \control|Selector0~0_combout\ $end
$var wire 1 Y \control|ci[2]~DUPLICATE_q\ $end
$var wire 1 Z \control|Selector7~0_combout\ $end
$var wire 1 [ \control|state.S2~DUPLICATE_q\ $end
$var wire 1 \ \control|Selector5~0_combout\ $end
$var wire 1 ] \control|state.S2~q\ $end
$var wire 1 ^ \control|Selector4~0_combout\ $end
$var wire 1 _ \control|Selector3~0_combout\ $end
$var wire 1 ` \control|Selector3~1_combout\ $end
$var wire 1 a \control|Selector3~2_combout\ $end
$var wire 1 b \control|Selector8~0_combout\ $end
$var wire 1 c \control|state.S4~q\ $end
$var wire 1 d \control|next_state.S5~0_combout\ $end
$var wire 1 e \control|state.S5~DUPLICATE_q\ $end
$var wire 1 f \control|Selector2~0_combout\ $end
$var wire 1 g \datos|Decoder2~7_combout\ $end
$var wire 1 h \wrinit~input_o\ $end
$var wire 1 i \control|state.S1~DUPLICATE_q\ $end
$var wire 1 j \datos|process_0~0_combout\ $end
$var wire 1 k \datain[0]~input_o\ $end
$var wire 1 l \datos|Decoder2~3_combout\ $end
$var wire 1 m \datos|R~16_combout\ $end
$var wire 1 n \radd[1]~input_o\ $end
$var wire 1 o \datain[1]~input_o\ $end
$var wire 1 p \datos|R~41_combout\ $end
$var wire 1 q \datos|R[7][1]~q\ $end
$var wire 1 r \datos|Decoder2~1_combout\ $end
$var wire 1 s \datos|R~39_combout\ $end
$var wire 1 t \datos|R~2_combout\ $end
$var wire 1 u \datos|R~3_combout\ $end
$var wire 1 v \datos|Decoder2~6_combout\ $end
$var wire 1 w \datain[3]~input_o\ $end
$var wire 1 x \datos|Decoder2~5_combout\ $end
$var wire 1 y \datos|R~59_combout\ $end
$var wire 1 z \datos|R[2][3]~21_combout\ $end
$var wire 1 { \radd[0]~input_o\ $end
$var wire 1 | \datos|Mux11~3_combout\ $end
$var wire 1 } \datos|R[0][1]~26_combout\ $end
$var wire 1 ~ \datos|R[0][1]~27_combout\ $end
$var wire 1 !! \datos|R[0][1]~28_combout\ $end
$var wire 1 "! \datos|R[0][3]~q\ $end
$var wire 1 #! \datos|R~61_combout\ $end
$var wire 1 $! \datos|R[3][0]~30_combout\ $end
$var wire 1 %! \datos|R[1][0]~35_combout\ $end
$var wire 1 &! \datos|R[1][0]~36_combout\ $end
$var wire 1 '! \datos|R[1][0]~37_combout\ $end
$var wire 1 (! \datos|R[1][3]~DUPLICATE_q\ $end
$var wire 1 )! \datos|Decoder2~4_combout\ $end
$var wire 1 *! \datos|R~58_combout\ $end
$var wire 1 +! \datos|dataout[0]~0_combout\ $end
$var wire 1 ,! \datos|R[2][3]~22_combout\ $end
$var wire 1 -! \datos|R[2][3]~23_combout\ $end
$var wire 1 .! \datos|R[2][3]~24_combout\ $end
$var wire 1 /! \datos|R[2][3]~DUPLICATE_q\ $end
$var wire 1 0! \datos|Mux7~1_combout\ $end
$var wire 1 1! \datos|R~57_combout\ $end
$var wire 1 2! \datos|R[7][3]~q\ $end
$var wire 1 3! \datos|Decoder2~0_combout\ $end
$var wire 1 4! \datos|R~54_combout\ $end
$var wire 1 5! \datos|R[4][0]~1_combout\ $end
$var wire 1 6! \datos|R[4][0]~4_combout\ $end
$var wire 1 7! \datos|R[4][0]~5_combout\ $end
$var wire 1 8! \datos|R[4][0]~6_combout\ $end
$var wire 1 9! \datos|R[4][3]~q\ $end
$var wire 1 :! \datos|Decoder2~2_combout\ $end
$var wire 1 ;! \datos|R~56_combout\ $end
$var wire 1 <! \datos|R[6][2]~13_combout\ $end
$var wire 1 =! \datos|R[6][2]~14_combout\ $end
$var wire 1 >! \datos|R[6][2]~15_combout\ $end
$var wire 1 ?! \datos|R[6][3]~q\ $end
$var wire 1 @! \datos|R~55_combout\ $end
$var wire 1 A! \datos|R[5][3]~q\ $end
$var wire 1 B! \datos|Mux7~0_combout\ $end
$var wire 1 C! \datos|Mux7~2_combout\ $end
$var wire 1 D! \datos|R~60_combout\ $end
$var wire 1 E! \datos|R[3][0]~31_combout\ $end
$var wire 1 F! \datos|R[3][0]~32_combout\ $end
$var wire 1 G! \datos|R[3][0]~33_combout\ $end
$var wire 1 H! \datos|R[3][3]~q\ $end
$var wire 1 I! \datos|Mux0~1_combout\ $end
$var wire 1 J! \datos|Mux0~0_combout\ $end
$var wire 1 K! \datos|Mux0~2_combout\ $end
$var wire 1 L! \datain[2]~input_o\ $end
$var wire 1 M! \datos|R~47_combout\ $end
$var wire 1 N! \datos|R[5][2]~q\ $end
$var wire 1 O! \datos|R~49_combout\ $end
$var wire 1 P! \datos|R[7][2]~q\ $end
$var wire 1 Q! \datos|R~48_combout\ $end
$var wire 1 R! \datos|R[6][2]~q\ $end
$var wire 1 S! \datos|R~46_combout\ $end
$var wire 1 T! \datos|R[4][2]~DUPLICATE_q\ $end
$var wire 1 U! \datos|Mux4~0_combout\ $end
$var wire 1 V! \datos|R~52_combout\ $end
$var wire 1 W! \datos|R[3][2]~q\ $end
$var wire 1 X! \datos|R~50_combout\ $end
$var wire 1 Y! \datos|R[2][2]~q\ $end
$var wire 1 Z! \datos|R~51_combout\ $end
$var wire 1 [! \datos|R[0][2]~q\ $end
$var wire 1 \! \datos|Mux4~1_combout\ $end
$var wire 1 ]! \datos|Mux4~2_combout\ $end
$var wire 1 ^! \datos|R~53_combout\ $end
$var wire 1 _! \datos|R[1][2]~q\ $end
$var wire 1 `! \datos|Mux1~1_combout\ $end
$var wire 1 a! \datos|R[4][2]~q\ $end
$var wire 1 b! \datos|Mux1~0_combout\ $end
$var wire 1 c! \datos|Mux1~2_combout\ $end
$var wire 1 d! \datos|LessThan0~3_combout\ $end
$var wire 1 e! \datos|R[5][0]~8_combout\ $end
$var wire 1 f! \datos|R[5][0]~9_combout\ $end
$var wire 1 g! \datos|R[5][0]~10_combout\ $end
$var wire 1 h! \datos|R[5][0]~11_combout\ $end
$var wire 1 i! \datos|R[5][1]~q\ $end
$var wire 1 j! \datos|R~38_combout\ $end
$var wire 1 k! \datos|R[4][1]~q\ $end
$var wire 1 l! \datos|R~40_combout\ $end
$var wire 1 m! \datos|R[6][1]~q\ $end
$var wire 1 n! \datos|Mux2~0_combout\ $end
$var wire 1 o! \datos|R~43_combout\ $end
$var wire 1 p! \datos|R[0][1]~q\ $end
$var wire 1 q! \datos|R~45_combout\ $end
$var wire 1 r! \datos|R[1][1]~q\ $end
$var wire 1 s! \datos|R~44_combout\ $end
$var wire 1 t! \datos|R[3][1]~q\ $end
$var wire 1 u! \datos|Mux2~1_combout\ $end
$var wire 1 v! \datos|Mux2~2_combout\ $end
$var wire 1 w! \datos|R~42_combout\ $end
$var wire 1 x! \datos|R[2][1]~q\ $end
$var wire 1 y! \datos|Mux5~1_combout\ $end
$var wire 1 z! \datos|Mux5~0_combout\ $end
$var wire 1 {! \datos|Mux5~2_combout\ $end
$var wire 1 |! \datos|R~20_combout\ $end
$var wire 1 }! \datos|R[2][0]~q\ $end
$var wire 1 ~! \datos|R~29_combout\ $end
$var wire 1 !" \datos|R[3][0]~q\ $end
$var wire 1 "" \datos|R~25_combout\ $end
$var wire 1 #" \datos|R[0][0]~q\ $end
$var wire 1 $" \datos|Mux3~1_combout\ $end
$var wire 1 %" \datos|Mux6~1_combout\ $end
$var wire 1 &" \datos|LessThan0~1_combout\ $end
$var wire 1 '" \datos|LessThan0~0_combout\ $end
$var wire 1 (" \datos|LessThan0~2_combout\ $end
$var wire 1 )" \datos|R[7][0]~17_combout\ $end
$var wire 1 *" \datos|R[7][0]~18_combout\ $end
$var wire 1 +" \datos|R[7][0]~19_combout\ $end
$var wire 1 ," \datos|R[7][0]~q\ $end
$var wire 1 -" \datos|R~7_combout\ $end
$var wire 1 ." \datos|R[5][0]~q\ $end
$var wire 1 /" \datos|R~12_combout\ $end
$var wire 1 0" \datos|R[6][0]~q\ $end
$var wire 1 1" \datos|Mux6~0_combout\ $end
$var wire 1 2" \datos|Mux6~2_combout\ $end
$var wire 1 3" \datos|R~0_combout\ $end
$var wire 1 4" \datos|R[4][0]~q\ $end
$var wire 1 5" \datos|Mux3~0_combout\ $end
$var wire 1 6" \datos|Mux3~2_combout\ $end
$var wire 1 7" \datos|R~34_combout\ $end
$var wire 1 8" \datos|R[1][0]~q\ $end
$var wire 1 9" \datos|R[3][0]~DUPLICATE_q\ $end
$var wire 1 :" \datos|Mux11~1_combout\ $end
$var wire 1 ;" \datos|Mux11~0_combout\ $end
$var wire 1 <" \datos|Mux11~2_combout\ $end
$var wire 1 =" \control|state.S7~0_combout\ $end
$var wire 1 >" \control|state.S7~_Duplicate_1_q\ $end
$var wire 1 ?" \datos|Mux10~0_combout\ $end
$var wire 1 @" \datos|R[3][1]~DUPLICATE_q\ $end
$var wire 1 A" \datos|R[0][1]~DUPLICATE_q\ $end
$var wire 1 B" \datos|Mux10~1_combout\ $end
$var wire 1 C" \datos|Mux10~2_combout\ $end
$var wire 1 D" \datos|Mux9~0_combout\ $end
$var wire 1 E" \datos|Mux9~1_combout\ $end
$var wire 1 F" \datos|Mux9~2_combout\ $end
$var wire 1 G" \datos|Mux8~0_combout\ $end
$var wire 1 H" \datos|R[2][3]~q\ $end
$var wire 1 I" \datos|R[1][3]~q\ $end
$var wire 1 J" \datos|Mux8~1_combout\ $end
$var wire 1 K" \datos|Mux8~2_combout\ $end
$var wire 1 L" \control|state.S7~q\ $end
$var wire 1 M" \datos|dataout\ [3] $end
$var wire 1 N" \datos|dataout\ [2] $end
$var wire 1 O" \datos|dataout\ [1] $end
$var wire 1 P" \datos|dataout\ [0] $end
$var wire 1 Q" \control|ci\ [2] $end
$var wire 1 R" \control|ci\ [1] $end
$var wire 1 S" \control|ci\ [0] $end
$var wire 1 T" \control|cj\ [2] $end
$var wire 1 U" \control|cj\ [1] $end
$var wire 1 V" \control|cj\ [0] $end
$var wire 1 W" \datos|ALT_INV_R[4][0]~1_combout\ $end
$var wire 1 X" \datos|ALT_INV_Mux11~3_combout\ $end
$var wire 1 Y" \datos|ALT_INV_Mux6~2_combout\ $end
$var wire 1 Z" \datos|ALT_INV_Mux6~1_combout\ $end
$var wire 1 [" \datos|ALT_INV_Mux6~0_combout\ $end
$var wire 1 \" \control|ALT_INV_Selector1~0_combout\ $end
$var wire 1 ]" \control|ALT_INV_Selector2~0_combout\ $end
$var wire 1 ^" \control|ALT_INV_Selector0~0_combout\ $end
$var wire 1 _" \datos|ALT_INV_Mux3~2_combout\ $end
$var wire 1 `" \datos|ALT_INV_Mux3~1_combout\ $end
$var wire 1 a" \control|ALT_INV_Selector3~2_combout\ $end
$var wire 1 b" \control|ALT_INV_Selector3~1_combout\ $end
$var wire 1 c" \control|ALT_INV_Selector3~0_combout\ $end
$var wire 1 d" \control|ALT_INV_cj\ [2] $end
$var wire 1 e" \control|ALT_INV_cj\ [1] $end
$var wire 1 f" \control|ALT_INV_cj\ [0] $end
$var wire 1 g" \datos|ALT_INV_Mux3~0_combout\ $end
$var wire 1 h" \control|ALT_INV_Selector4~0_combout\ $end
$var wire 1 i" \control|ALT_INV_Selector5~0_combout\ $end
$var wire 1 j" \datos|ALT_INV_Decoder2~0_combout\ $end
$var wire 1 k" \datos|ALT_INV_process_0~0_combout\ $end
$var wire 1 l" \control|ALT_INV_state.S2~q\ $end
$var wire 1 m" \control|ALT_INV_state.S0~q\ $end
$var wire 1 n" \control|ALT_INV_state.S4~q\ $end
$var wire 1 o" \control|ALT_INV_state.S1~q\ $end
$var wire 1 p" \control|ALT_INV_ci\ [2] $end
$var wire 1 q" \control|ALT_INV_ci\ [1] $end
$var wire 1 r" \control|ALT_INV_ci\ [0] $end
$var wire 1 s" \control|ALT_INV_state.S5~q\ $end
$var wire 1 t" \datos|ALT_INV_Mux8~1_combout\ $end
$var wire 1 u" \datos|ALT_INV_R[1][3]~q\ $end
$var wire 1 v" \datos|ALT_INV_R[3][3]~q\ $end
$var wire 1 w" \datos|ALT_INV_R[0][3]~q\ $end
$var wire 1 x" \datos|ALT_INV_R[2][3]~q\ $end
$var wire 1 y" \datos|ALT_INV_Mux8~0_combout\ $end
$var wire 1 z" \datos|ALT_INV_R[7][3]~q\ $end
$var wire 1 {" \datos|ALT_INV_R[6][3]~q\ $end
$var wire 1 |" \datos|ALT_INV_R[5][3]~q\ $end
$var wire 1 }" \datos|ALT_INV_R[4][3]~q\ $end
$var wire 1 ~" \datos|ALT_INV_Mux9~1_combout\ $end
$var wire 1 !# \datos|ALT_INV_R[1][2]~q\ $end
$var wire 1 "# \datos|ALT_INV_R[3][2]~q\ $end
$var wire 1 ## \datos|ALT_INV_R[0][2]~q\ $end
$var wire 1 $# \datos|ALT_INV_R[2][2]~q\ $end
$var wire 1 %# \datos|ALT_INV_Mux9~0_combout\ $end
$var wire 1 &# \datos|ALT_INV_R[7][2]~q\ $end
$var wire 1 '# \datos|ALT_INV_R[6][2]~q\ $end
$var wire 1 (# \datos|ALT_INV_R[5][2]~q\ $end
$var wire 1 )# \datos|ALT_INV_R[4][2]~q\ $end
$var wire 1 *# \datos|ALT_INV_Mux10~1_combout\ $end
$var wire 1 +# \datos|ALT_INV_R[1][1]~q\ $end
$var wire 1 ,# \datos|ALT_INV_R[3][1]~q\ $end
$var wire 1 -# \datos|ALT_INV_R[0][1]~q\ $end
$var wire 1 .# \datos|ALT_INV_R[2][1]~q\ $end
$var wire 1 /# \datos|ALT_INV_Mux10~0_combout\ $end
$var wire 1 0# \datos|ALT_INV_R[7][1]~q\ $end
$var wire 1 1# \datos|ALT_INV_R[6][1]~q\ $end
$var wire 1 2# \datos|ALT_INV_R[5][1]~q\ $end
$var wire 1 3# \datos|ALT_INV_R[4][1]~q\ $end
$var wire 1 4# \datos|ALT_INV_Mux11~1_combout\ $end
$var wire 1 5# \datos|ALT_INV_R[1][0]~q\ $end
$var wire 1 6# \datos|ALT_INV_R[3][0]~q\ $end
$var wire 1 7# \datos|ALT_INV_R[0][0]~q\ $end
$var wire 1 8# \datos|ALT_INV_R[2][0]~q\ $end
$var wire 1 9# \datos|ALT_INV_Mux11~0_combout\ $end
$var wire 1 :# \datos|ALT_INV_R[7][0]~q\ $end
$var wire 1 ;# \datos|ALT_INV_R[6][0]~q\ $end
$var wire 1 <# \datos|ALT_INV_R[5][0]~q\ $end
$var wire 1 =# \datos|ALT_INV_R[4][0]~q\ $end
$var wire 1 ># \control|ALT_INV_state.S7~_Duplicate_1_q\ $end
$var wire 1 ?# \control|ALT_INV_state.S2~DUPLICATE_q\ $end
$var wire 1 @# \control|ALT_INV_state.S4~DUPLICATE_q\ $end
$var wire 1 A# \control|ALT_INV_state.S1~DUPLICATE_q\ $end
$var wire 1 B# \control|ALT_INV_ci[1]~DUPLICATE_q\ $end
$var wire 1 C# \control|ALT_INV_ci[2]~DUPLICATE_q\ $end
$var wire 1 D# \control|ALT_INV_state.S5~DUPLICATE_q\ $end
$var wire 1 E# \datos|ALT_INV_R[1][3]~DUPLICATE_q\ $end
$var wire 1 F# \datos|ALT_INV_R[2][3]~DUPLICATE_q\ $end
$var wire 1 G# \datos|ALT_INV_R[4][2]~DUPLICATE_q\ $end
$var wire 1 H# \datos|ALT_INV_R[3][1]~DUPLICATE_q\ $end
$var wire 1 I# \datos|ALT_INV_R[0][1]~DUPLICATE_q\ $end
$var wire 1 J# \datos|ALT_INV_R[3][0]~DUPLICATE_q\ $end
$var wire 1 K# \ALT_INV_go~input_o\ $end
$var wire 1 L# \ALT_INV_datain[3]~input_o\ $end
$var wire 1 M# \ALT_INV_datain[2]~input_o\ $end
$var wire 1 N# \ALT_INV_datain[1]~input_o\ $end
$var wire 1 O# \ALT_INV_wrinit~input_o\ $end
$var wire 1 P# \ALT_INV_datain[0]~input_o\ $end
$var wire 1 Q# \ALT_INV_radd[1]~input_o\ $end
$var wire 1 R# \ALT_INV_radd[0]~input_o\ $end
$var wire 1 S# \ALT_INV_radd[2]~input_o\ $end
$var wire 1 T# \datos|ALT_INV_R[1][0]~36_combout\ $end
$var wire 1 U# \datos|ALT_INV_R[1][0]~35_combout\ $end
$var wire 1 V# \datos|ALT_INV_Decoder2~7_combout\ $end
$var wire 1 W# \datos|ALT_INV_R[3][0]~32_combout\ $end
$var wire 1 X# \datos|ALT_INV_R[3][0]~31_combout\ $end
$var wire 1 Y# \datos|ALT_INV_R[3][0]~30_combout\ $end
$var wire 1 Z# \datos|ALT_INV_Decoder2~6_combout\ $end
$var wire 1 [# \datos|ALT_INV_R[0][1]~27_combout\ $end
$var wire 1 \# \datos|ALT_INV_R[0][1]~26_combout\ $end
$var wire 1 ]# \datos|ALT_INV_Decoder2~5_combout\ $end
$var wire 1 ^# \datos|ALT_INV_R[2][3]~23_combout\ $end
$var wire 1 _# \datos|ALT_INV_R[2][3]~22_combout\ $end
$var wire 1 `# \datos|ALT_INV_R[2][3]~21_combout\ $end
$var wire 1 a# \datos|ALT_INV_Decoder2~4_combout\ $end
$var wire 1 b# \datos|ALT_INV_R[7][0]~18_combout\ $end
$var wire 1 c# \datos|ALT_INV_R[7][0]~17_combout\ $end
$var wire 1 d# \datos|ALT_INV_Decoder2~3_combout\ $end
$var wire 1 e# \datos|ALT_INV_R[6][2]~14_combout\ $end
$var wire 1 f# \datos|ALT_INV_R[6][2]~13_combout\ $end
$var wire 1 g# \datos|ALT_INV_dataout[0]~0_combout\ $end
$var wire 1 h# \datos|ALT_INV_Decoder2~2_combout\ $end
$var wire 1 i# \datos|ALT_INV_R[5][0]~10_combout\ $end
$var wire 1 j# \datos|ALT_INV_R[5][0]~9_combout\ $end
$var wire 1 k# \datos|ALT_INV_R[5][0]~8_combout\ $end
$var wire 1 l# \datos|ALT_INV_Decoder2~1_combout\ $end
$var wire 1 m# \datos|ALT_INV_R[4][0]~5_combout\ $end
$var wire 1 n# \datos|ALT_INV_R[4][0]~4_combout\ $end
$var wire 1 o# \datos|ALT_INV_R~3_combout\ $end
$var wire 1 p# \datos|ALT_INV_R~2_combout\ $end
$var wire 1 q# \datos|ALT_INV_LessThan0~3_combout\ $end
$var wire 1 r# \datos|ALT_INV_Mux0~2_combout\ $end
$var wire 1 s# \datos|ALT_INV_Mux7~2_combout\ $end
$var wire 1 t# \datos|ALT_INV_LessThan0~2_combout\ $end
$var wire 1 u# \datos|ALT_INV_LessThan0~1_combout\ $end
$var wire 1 v# \datos|ALT_INV_Mux2~2_combout\ $end
$var wire 1 w# \datos|ALT_INV_Mux2~1_combout\ $end
$var wire 1 x# \datos|ALT_INV_Mux2~0_combout\ $end
$var wire 1 y# \datos|ALT_INV_Mux5~2_combout\ $end
$var wire 1 z# \datos|ALT_INV_Mux5~1_combout\ $end
$var wire 1 {# \datos|ALT_INV_Mux5~0_combout\ $end
$var wire 1 |# \datos|ALT_INV_Mux1~2_combout\ $end
$var wire 1 }# \datos|ALT_INV_Mux1~1_combout\ $end
$var wire 1 ~# \datos|ALT_INV_Mux1~0_combout\ $end
$var wire 1 !$ \datos|ALT_INV_Mux4~2_combout\ $end
$var wire 1 "$ \datos|ALT_INV_Mux4~1_combout\ $end
$var wire 1 #$ \datos|ALT_INV_Mux4~0_combout\ $end
$var wire 1 $$ \datos|ALT_INV_LessThan0~0_combout\ $end
$var wire 1 %$ \datos|ALT_INV_Mux0~1_combout\ $end
$var wire 1 &$ \datos|ALT_INV_Mux0~0_combout\ $end
$var wire 1 '$ \datos|ALT_INV_Mux7~1_combout\ $end
$var wire 1 ($ \datos|ALT_INV_Mux7~0_combout\ $end
$upscope $end
$upscope $end
$enddefinitions $end
#0
$dumpvars
0!
0*
0+
0/
00
01
12
x3
14
15
16
17
18
19
0:
0;
0<
0=
0I
xJ
0K
0L
0M
0N
0O
0P
0Q
1R
0S
1T
0U
0V
0W
0X
0Y
0Z
0[
0\
0]
0^
0_
0`
0a
0b
0c
0d
0e
0f
0g
0h
0i
0j
0k
0l
0m
0n
0o
0p
0q
0r
0s
0t
0u
0v
0w
1x
0y
0z
0{
1|
1}
0~
0!!
0"!
0#!
0$!
0%!
1&!
0'!
0(!
0)!
0*!
0+!
0,!
1-!
0.!
0/!
00!
01!
02!
03!
04!
05!
06!
17!
08!
09!
0:!
0;!
0<!
1=!
0>!
0?!
0@!
0A!
0B!
0C!
0D!
0E!
1F!
0G!
0H!
0I!
0J!
0K!
0L!
0M!
0N!
0O!
0P!
0Q!
0R!
0S!
0T!
0U!
0V!
0W!
0X!
0Y!
0Z!
0[!
0\!
0]!
0^!
0_!
0`!
0a!
0b!
0c!
0d!
0e!
0f!
1g!
0h!
0i!
0j!
0k!
0l!
0m!
0n!
0o!
0p!
0q!
0r!
0s!
0t!
0u!
0v!
0w!
0x!
0y!
0z!
0{!
0|!
0}!
0~!
0!"
0""
0#"
0$"
0%"
0&"
0'"
0("
0)"
1*"
0+"
0,"
0-"
0."
0/"
00"
01"
02"
03"
04"
05"
06"
07"
08"
09"
0:"
0;"
0<"
0="
0>"
0?"
0@"
0A"
0B"
0C"
0D"
0E"
0F"
0G"
0H"
0I"
0J"
0K"
0L"
1W"
0X"
1Y"
1Z"
1["
1\"
1]"
1^"
1_"
1`"
1a"
1b"
1c"
1g"
1h"
1i"
1j"
1k"
1l"
1m"
1n"
1o"
1s"
1t"
1u"
1v"
1w"
1x"
1y"
1z"
1{"
1|"
1}"
1~"
1!#
1"#
1##
1$#
1%#
1&#
1'#
1(#
1)#
1*#
1+#
1,#
1-#
1.#
1/#
10#
11#
12#
13#
14#
15#
16#
17#
18#
19#
1:#
1;#
1<#
1=#
1>#
1?#
1@#
1A#
1B#
1C#
1D#
1E#
1F#
1G#
1H#
1I#
1J#
1K#
1L#
1M#
1N#
1O#
1P#
1Q#
1R#
1S#
0T#
1U#
1V#
0W#
1X#
1Y#
1Z#
1[#
0\#
0]#
0^#
1_#
1`#
1a#
0b#
1c#
1d#
0e#
1f#
1g#
1h#
0i#
1j#
1k#
1l#
0m#
1n#
1o#
1p#
1q#
1r#
1s#
1t#
1u#
1v#
1w#
1x#
1y#
1z#
1{#
1|#
1}#
1~#
1!$
1"$
1#$
1$$
1%$
1&$
1'$
1($
0"
0#
0$
0%
0,
0-
0.
0&
0'
0(
0)
0>
0?
0@
0A
0B
0C
0D
0E
0F
0G
0H
0M"
0N"
0O"
0P"
0Q"
0R"
0S"
0T"
0U"
0V"
1d"
1e"
1f"
1p"
1q"
1r"
$end
#6000
1!
1:
1K
1L
#12000
0!
0:
0K
0L
#18000
1!
1:
1K
1L
#24000
0!
0:
0K
0L
#26000
1/
1;
1N
#30000
1!
1:
1K
1L
1S
1U
1i
0A#
0o"
0m"
1t
0p#
#36000
0!
0:
0K
0L
#38000
1"
1#
1$
1%
1A
1@
1?
1>
1w
1L!
1o
1k
0P#
0N#
0M#
0L#
#42000
1!
1:
1K
1L
#46000
10
1=
1h
0O#
1j
1z
0&!
0-!
07!
0=!
0F!
0g!
0*"
1b#
1i#
1W#
1e#
1m#
1^#
1T#
0`#
0k"
1m
1p
1s
1y
1#!
1*!
11!
14!
1;!
1@!
1D!
1M!
1O!
1Q!
1S!
1V!
1X!
1Z!
1^!
1j!
1l!
1o!
1q!
1s!
1w!
1|!
1~!
1""
1-"
1/"
13"
17"
1!!
#48000
0!
0:
0K
0L
#54000
1!
1:
1K
1L
1"!
1[!
1p!
1#"
1A"
0I#
07#
0-#
0##
0w"
10!
1I!
1J"
1\!
1`!
1E"
1u!
1y!
1$"
1%"
1:"
1B"
0*#
04#
0Z"
0`"
0z#
0w#
0~"
0}#
0"$
0t"
0%$
0'$
1C!
1K!
1K"
1]!
1c!
1F"
1v!
1{!
16"
12"
1<"
1C"
0Y"
0_"
0y#
0v#
0|#
0!$
0r#
0s#
#58000
0$
0%
1.
0A
0@
1D
1{
0o
0k
1P#
1N#
0R#
0|
1$!
0:"
0B"
0E"
0J"
0p
0s
0j!
0l!
0o!
0q!
0s!
0w!
0m
0|!
0~!
0""
0-"
0/"
03"
07"
1t"
1~"
1*#
14#
0Y#
1X"
0!!
1'!
0<"
0C"
0F"
0K"
#60000
0!
0:
0K
0L
#66000
1!
1:
1K
1L
1(!
1_!
1I"
0u"
0!#
0E#
1E"
1J"
0t"
0~"
1F"
1K"
#70000
1$
0.
0#
1-
1@
0?
0D
1C
1n
0{
0L!
1o
0N#
1M#
1R#
0Q#
0'!
1G!
0$!
1+!
0E"
0J"
0M!
0O!
0Q!
0S!
0V!
0X!
0Z!
0^!
1p
1s
1j!
1l!
1o!
1q!
1s!
1w!
1t"
1~"
0g#
1Y#
0G!
1.!
0F"
0K"
#72000
0!
0:
0K
0L
#78000
1!
1:
1K
1L
1/!
1x!
1H"
0x"
0.#
0F#
1B"
1J"
0t"
0*#
1C"
1K"
#82000
1.
1#
1%
0"
1D
1A
1?
0>
0w
1L!
1k
1{
0R#
0P#
0M#
1L#
0y
0#!
0*!
01!
04!
0;!
0@!
0D!
1M!
1O!
1Q!
1S!
1V!
1X!
1Z!
1^!
1m
1|!
1~!
1""
1-"
1/"
13"
17"
1$!
0+!
0B"
0J"
1t"
1*#
1g#
0Y#
1G!
0.!
0C"
0K"
#84000
0!
0:
0K
0L
#90000
1!
1:
1K
1L
1W!
1t!
1!"
19"
1@"
0H#
0J#
06#
0,#
0"#
1E"
1:"
1B"
0*#
04#
0~"
1F"
1<"
1C"
#94000
0.
0$
0-
1,
0D
0C
1B
0@
0o
1M
0n
0{
1R#
1Q#
0S#
1N#
0p
0s
0j!
0l!
0o!
0q!
0s!
0w!
0z
15!
0<"
0C"
0F"
1'!
0G!
1|
0$!
1J"
0t"
1Y#
0X"
0W"
1`#
18!
0'!
#96000
0!
0:
0K
0L
#102000
1!
1:
1K
1L
1T!
1a!
14"
0=#
0)#
0G#
1U!
1b!
1D"
11"
15"
1;"
09#
0g"
0["
0%#
0~#
0#$
1F"
1<"
#106000
1.
1$
0#
1D
1@
0?
0L!
1o
1{
0R#
0N#
1M#
0M!
0O!
0Q!
0S!
0V!
0X!
0Z!
0^!
1p
1s
1j!
1l!
1o!
1q!
1s!
1w!
0|
1e!
0:"
0;"
0B"
0D"
1%#
1*#
19#
14#
0k#
1X"
08!
1h!
0<"
0F"
#108000
0!
0:
0K
0L
#114000
1!
1:
1K
1L
1i!
1."
0<#
02#
1?"
1;"
09#
0/#
1C"
1<"
#118000
0.
1-
0%
0D
1C
0A
0k
1n
0{
1R#
0Q#
1P#
0m
0|!
0~!
0""
0-"
0/"
03"
07"
0h!
1+"
1+!
0e!
0;"
0?"
1B"
0E"
1~"
0*#
1/#
19#
1k#
0g#
1>!
0+"
0<"
0C"
#120000
0!
0:
0K
0L
#126000
1!
1:
1K
1L
1m!
01#
1?"
0/#
1C"
#130000
1.
1%
0$
1D
1A
0@
0o
1k
1{
0R#
0P#
1N#
0p
0s
0j!
0l!
0o!
0q!
0s!
0w!
1m
1|!
1~!
1""
1-"
1/"
13"
17"
0+!
1e!
1:"
0?"
1E"
0J"
1t"
0~"
1/#
04#
0k#
1g#
0>!
1+"
0C"
#132000
0!
0:
0K
0L
#138000
1!
1:
1K
1L
1,"
0:#
1;"
09#
1<"
#142000
0.
0%
0-
0,
0D
0C
0B
0A
0k
0M
0n
0{
1R#
1Q#
1S#
1P#
0m
0|!
0~!
0""
0-"
0/"
03"
07"
1z
05!
1C"
1F"
1h!
0+"
1|
0e!
1D"
1J"
0t"
0%#
1k#
0X"
1W"
0`#
1!!
0h!
1K"
